public class Alo {
    int a;
    int heh(){
    int b;
    a = 6;
    b = a;
    if (a > 6) {
        a = 8;
    }
    return b; 
    } 
    int foo() {
        int c;
        c = 5;
        if (c < 10) {
            a = 8;
        }
        else {
            a = 10;
        }
    }
}
public class Alo2 {
    int a;
    private Alo aa = new Alo();
    int heh(){
        int b;
        b = 5 + 6;
        a = b;
        return a;
    }
    int foo(int q) {
        int d;
        d = heh();
    } 
}